Connecting to host 127.0.0.1, port 5209
[  5] local 127.0.0.1 port 51624 connected to 127.0.0.1 port 5209
[ ID] Interval           Transfer     Bitrate         Total Datagrams
[  5]   0.00-1.00   sec   119 MBytes   999 Mbits/sec  1908  
[  5]   1.00-2.00   sec   119 MBytes  1.00 Gbits/sec  1909  
[  5]   2.00-3.00   sec   119 MBytes  1.00 Gbits/sec  1909  
[  5]   3.00-4.00   sec   119 MBytes  1.00 Gbits/sec  1909  
[  5]   4.00-5.00   sec   119 MBytes  1000 Mbits/sec  1908  
[  5]   5.00-6.00   sec   119 MBytes  1.00 Gbits/sec  1909  
[  5]   6.00-7.00   sec   119 MBytes  1.00 Gbits/sec  1909  
[  5]   7.00-8.00   sec   119 MBytes  1000 Mbits/sec  1909  
[  5]   8.00-9.00   sec   119 MBytes  1.00 Gbits/sec  1909  
[  5]   9.00-10.00  sec   119 MBytes  1.00 Gbits/sec  1909  
[  5]  10.00-11.00  sec   119 MBytes  1.00 Gbits/sec  1909  
[  5]  11.00-12.00  sec   119 MBytes  1.00 Gbits/sec  1909  
[  5]  12.00-13.00  sec   103 MBytes   860 Mbits/sec  1657  
[  5]  13.00-14.00  sec   133 MBytes  1.12 Gbits/sec  2217  
[  5]  14.00-15.00  sec   121 MBytes  1.02 Gbits/sec  1946  
[  5]  15.00-16.00  sec   119 MBytes  1000 Mbits/sec  1908  
[  5]  16.00-17.00  sec   119 MBytes  1.00 Gbits/sec  1909  
[  5]  17.00-18.00  sec   119 MBytes  1.00 Gbits/sec  1909  
[  5]  18.00-19.00  sec   119 MBytes  1.00 Gbits/sec  1909  
[  5]  19.00-20.00  sec   119 MBytes  1.00 Gbits/sec  1909  
[  5]  20.00-21.00  sec   119 MBytes  1.00 Gbits/sec  1909  
[  5]  21.00-22.00  sec   119 MBytes  1000 Mbits/sec  1908  
[  5]  22.00-23.00  sec   119 MBytes  1.00 Gbits/sec  1909  
[  5]  23.00-24.00  sec   119 MBytes  1.00 Gbits/sec  1909  
[  5]  24.00-25.00  sec   119 MBytes  1.00 Gbits/sec  1909  
[  5]  25.00-26.00  sec  97.0 MBytes   813 Mbits/sec  1567  
[  5]  26.00-27.00  sec   141 MBytes  1.19 Gbits/sec  2310  
[  5]  27.00-28.00  sec   119 MBytes  1.00 Gbits/sec  1909  
[  5]  28.00-29.00  sec   119 MBytes  1.00 Gbits/sec  1909  
[  5]  29.00-30.00  sec   119 MBytes  1.00 Gbits/sec  1909  
[  5]  30.00-31.00  sec   119 MBytes  1000 Mbits/sec  1908  
[  5]  31.00-32.00  sec   119 MBytes  1.00 Gbits/sec  1910  
[  5]  32.00-33.00  sec   119 MBytes  1000 Mbits/sec  1908  
[  5]  33.00-34.00  sec   119 MBytes  1.00 Gbits/sec  1909  
[  5]  34.00-35.00  sec   119 MBytes  1.00 Gbits/sec  1909  
[  5]  35.00-36.00  sec   119 MBytes  1.00 Gbits/sec  1909  
[  5]  36.00-37.00  sec   119 MBytes  1.00 Gbits/sec  1909  
[  5]  37.00-38.00  sec   119 MBytes  1.00 Gbits/sec  1909  
[  5]  38.00-39.00  sec   119 MBytes  1.00 Gbits/sec  1937  
[  5]  39.00-40.00  sec   119 MBytes  1000 Mbits/sec  1908  
[  5]  40.00-41.00  sec   119 MBytes  1.00 Gbits/sec  1910  
[  5]  41.00-42.00  sec   119 MBytes  1000 Mbits/sec  1908  
[  5]  42.00-43.00  sec   119 MBytes  1.00 Gbits/sec  1910  
[  5]  43.00-44.00  sec   119 MBytes  1.00 Gbits/sec  1909  
[  5]  44.00-45.00  sec   119 MBytes  1000 Mbits/sec  1908  
[  5]  45.00-46.00  sec   119 MBytes  1.00 Gbits/sec  1909  
[  5]  46.00-47.00  sec   119 MBytes  1.00 Gbits/sec  1909  
[  5]  47.00-48.00  sec   119 MBytes  1.00 Gbits/sec  1909  
[  5]  48.00-49.00  sec   119 MBytes  1000 Mbits/sec  1909  
[  5]  49.00-50.00  sec   119 MBytes  1.00 Gbits/sec  1909  
[  5]  50.00-51.01  sec   109 MBytes   903 Mbits/sec  1764  
[  5]  51.01-52.00  sec   130 MBytes  1.10 Gbits/sec  2081  
[  5]  52.00-53.00  sec   119 MBytes  1.00 Gbits/sec  1910  
[  5]  53.00-54.00  sec   119 MBytes  1.00 Gbits/sec  1909  
[  5]  54.00-55.00  sec   119 MBytes  1.00 Gbits/sec  1909  
[  5]  55.00-56.00  sec   119 MBytes  1.00 Gbits/sec  1910  
[  5]  56.00-57.00  sec   119 MBytes   999 Mbits/sec  1908  
[  5]  57.00-58.00  sec   119 MBytes  1.00 Gbits/sec  1909  
[  5]  58.00-59.00  sec   119 MBytes  1000 Mbits/sec  1908  
[  5]  59.00-60.00  sec   119 MBytes  1.00 Gbits/sec  1910  
[  5]  60.00-61.00  sec   119 MBytes  1000 Mbits/sec  1908  
[  5]  61.00-62.00  sec   119 MBytes  1.00 Gbits/sec  1909  
[  5]  62.00-63.01  sec   106 MBytes   879 Mbits/sec  1733  
[  5]  63.01-64.00  sec   133 MBytes  1.12 Gbits/sec  2131  
[  5]  64.00-65.00  sec   119 MBytes  1.00 Gbits/sec  1909  
[  5]  65.00-66.00  sec   119 MBytes  1.00 Gbits/sec  1909  
[  5]  66.00-67.00  sec   119 MBytes  1.00 Gbits/sec  1909  
[  5]  67.00-68.00  sec   119 MBytes   999 Mbits/sec  1908  
[  5]  68.00-69.00  sec   119 MBytes  1.00 Gbits/sec  1910  
[  5]  69.00-70.00  sec   119 MBytes  1000 Mbits/sec  1908  
[  5]  70.00-71.00  sec   119 MBytes  1.00 Gbits/sec  1909  
[  5]  71.00-72.00  sec   119 MBytes  1.00 Gbits/sec  1909  
[  5]  72.00-73.00  sec   119 MBytes  1.00 Gbits/sec  1910  
[  5]  73.00-74.00  sec   119 MBytes  1000 Mbits/sec  1908  
[  5]  74.00-75.01  sec   108 MBytes   898 Mbits/sec  1739  
[  5]  75.01-76.00  sec   131 MBytes  1.10 Gbits/sec  2100  
[  5]  76.00-77.00  sec   119 MBytes  1.00 Gbits/sec  1910  
[  5]  77.00-78.00  sec   119 MBytes  1.00 Gbits/sec  1909  
[  5]  78.00-79.00  sec   119 MBytes  1000 Mbits/sec  1908  
[  5]  79.00-80.00  sec   119 MBytes  1.00 Gbits/sec  1910  
[  5]  80.00-81.00  sec   119 MBytes  1000 Mbits/sec  1908  
[  5]  81.00-82.00  sec   119 MBytes  1.00 Gbits/sec  1909  
[  5]  82.00-83.00  sec   119 MBytes  1.00 Gbits/sec  1909  
[  5]  83.00-84.00  sec   119 MBytes  1.00 Gbits/sec  1909  
[  5]  84.00-85.00  sec   119 MBytes  1.00 Gbits/sec  1909  
[  5]  85.00-86.00  sec   119 MBytes  1.00 Gbits/sec  1909  
[  5]  86.00-87.00  sec   119 MBytes  1000 Mbits/sec  1908  
[  5]  87.00-88.00  sec   119 MBytes  1.00 Gbits/sec  1915  
[  5]  88.00-89.00  sec   119 MBytes  1000 Mbits/sec  1908  
[  5]  89.00-90.00  sec   119 MBytes  1.00 Gbits/sec  1909  
[  5]  90.00-91.00  sec   119 MBytes  1.00 Gbits/sec  1909  
[  5]  91.00-92.00  sec   119 MBytes  1.00 Gbits/sec  1909  
[  5]  92.00-93.00  sec   119 MBytes  1.00 Gbits/sec  1909  
[  5]  93.00-94.00  sec   119 MBytes  1.00 Gbits/sec  1909  
[  5]  94.00-95.00  sec   119 MBytes  1.00 Gbits/sec  1909  
[  5]  95.00-96.00  sec   119 MBytes  1000 Mbits/sec  1908  
[  5]  96.00-97.00  sec   119 MBytes  1.00 Gbits/sec  1910  
[  5]  97.00-98.00  sec   119 MBytes  1000 Mbits/sec  1908  
[  5]  98.00-99.00  sec   119 MBytes  1.00 Gbits/sec  1909  
[  5]  99.00-100.00 sec   119 MBytes  1.00 Gbits/sec  1917  
[  5] 100.00-101.00 sec   119 MBytes  1.00 Gbits/sec  1909  
[  5] 101.00-102.00 sec   119 MBytes  1.00 Gbits/sec  1909  
[  5] 102.00-103.00 sec   119 MBytes  1.00 Gbits/sec  1909  
[  5] 103.00-104.00 sec   119 MBytes  1.00 Gbits/sec  1909  
[  5] 104.00-105.00 sec   119 MBytes  1000 Mbits/sec  1908  
[  5] 105.00-106.00 sec   119 MBytes  1.00 Gbits/sec  1910  
[  5] 106.00-107.00 sec   119 MBytes  1000 Mbits/sec  1908  
[  5] 107.00-108.00 sec   119 MBytes  1000 Mbits/sec  1909  
[  5] 108.00-109.00 sec   119 MBytes  1.00 Gbits/sec  1909  
[  5] 109.00-110.00 sec   119 MBytes  1.00 Gbits/sec  1909  
[  5] 110.00-111.00 sec   119 MBytes  1.00 Gbits/sec  1909  
[  5] 111.00-112.00 sec   119 MBytes  1.00 Gbits/sec  1931  
[  5] 112.00-113.00 sec   119 MBytes  1.00 Gbits/sec  1912  
[  5] 113.00-114.00 sec   119 MBytes  1.00 Gbits/sec  1909  
[  5] 114.00-115.00 sec   119 MBytes   999 Mbits/sec  1909  
[  5] 115.00-116.00 sec   119 MBytes  1.00 Gbits/sec  1911  
[  5] 116.00-117.00 sec   119 MBytes  1.00 Gbits/sec  1909  
[  5] 117.00-118.00 sec   119 MBytes  1000 Mbits/sec  1908  
[  5] 118.00-119.00 sec   119 MBytes  1.00 Gbits/sec  1909  
[  5] 119.00-120.00 sec   119 MBytes  1.00 Gbits/sec  1909  
[  5] 120.00-121.00 sec   119 MBytes  1.00 Gbits/sec  1909  
[  5] 121.00-122.00 sec   119 MBytes  1.00 Gbits/sec  1909  
[  5] 122.00-123.00 sec   119 MBytes  1.00 Gbits/sec  1909  
[  5] 123.00-124.00 sec   119 MBytes  1000 Mbits/sec  1908  
[  5] 124.00-125.00 sec   119 MBytes  1.00 Gbits/sec  1910  
[  5] 125.00-126.00 sec   119 MBytes  1000 Mbits/sec  1908  
[  5] 126.00-127.00 sec   119 MBytes  1.00 Gbits/sec  1909  
[  5] 127.00-128.00 sec   119 MBytes  1.00 Gbits/sec  1910  
[  5] 128.00-129.00 sec   119 MBytes  1000 Mbits/sec  1908  
[  5] 129.00-130.00 sec   119 MBytes  1.00 Gbits/sec  1909  
[  5] 130.00-131.00 sec   119 MBytes  1.00 Gbits/sec  1909  
[  5] 131.00-132.00 sec   119 MBytes  1.00 Gbits/sec  1909  
[  5] 132.00-133.00 sec   119 MBytes  1000 Mbits/sec  1908  
[  5] 133.00-134.00 sec   119 MBytes  1.00 Gbits/sec  1910  
[  5] 134.00-135.00 sec   119 MBytes  1000 Mbits/sec  1908  
[  5] 135.00-136.00 sec   119 MBytes  1.00 Gbits/sec  1910  
[  5] 136.00-137.00 sec   119 MBytes  1000 Mbits/sec  1908  
[  5] 137.00-138.00 sec   119 MBytes  1.00 Gbits/sec  1909  
[  5] 138.00-139.00 sec   119 MBytes  1.00 Gbits/sec  1909  
[  5] 139.00-140.00 sec   119 MBytes  1.00 Gbits/sec  1909  
[  5] 140.00-141.00 sec   119 MBytes  1.00 Gbits/sec  1909  
[  5] 141.00-142.00 sec   119 MBytes  1.00 Gbits/sec  1909  
[  5] 142.00-143.00 sec   119 MBytes  1.00 Gbits/sec  1909  
[  5] 143.00-144.00 sec   119 MBytes  1000 Mbits/sec  1908  
[  5] 144.00-145.00 sec   119 MBytes  1.00 Gbits/sec  1909  
[  5] 145.00-146.00 sec   119 MBytes  1000 Mbits/sec  1909  
[  5] 146.00-147.00 sec   119 MBytes  1.00 Gbits/sec  1909  
[  5] 147.00-148.00 sec   119 MBytes  1.00 Gbits/sec  1915  
[  5] 148.00-149.00 sec   119 MBytes  1.00 Gbits/sec  1909  
[  5] 149.00-150.00 sec   119 MBytes  1.00 Gbits/sec  1909  
[  5] 150.00-151.00 sec   119 MBytes  1.00 Gbits/sec  1909  
[  5] 151.00-152.00 sec   119 MBytes  1000 Mbits/sec  1908  
[  5] 152.00-153.00 sec   119 MBytes  1.00 Gbits/sec  1909  
[  5] 153.00-154.00 sec   119 MBytes  1.00 Gbits/sec  1910  
[  5] 154.00-155.00 sec   119 MBytes  1000 Mbits/sec  1908  
[  5] 155.00-156.00 sec   119 MBytes   999 Mbits/sec  1909  
[  5] 156.00-157.00 sec   119 MBytes  1.00 Gbits/sec  1910  
[  5] 157.00-158.00 sec   119 MBytes   999 Mbits/sec  1908  
[  5] 158.00-159.00 sec   119 MBytes  1.00 Gbits/sec  1909  
[  5] 159.00-160.00 sec   119 MBytes  1.00 Gbits/sec  1909  
[  5] 160.00-161.00 sec   119 MBytes  1000 Mbits/sec  1908  
[  5] 161.00-162.00 sec   119 MBytes  1.00 Gbits/sec  1910  
[  5] 162.00-163.00 sec   119 MBytes  1000 Mbits/sec  1908  
[  5] 163.00-164.00 sec   119 MBytes  1000 Mbits/sec  1909  
[  5] 164.00-165.00 sec   119 MBytes  1.00 Gbits/sec  1909  
[  5] 165.00-166.00 sec   119 MBytes  1.00 Gbits/sec  1909  
[  5] 166.00-167.00 sec   119 MBytes  1.00 Gbits/sec  1910  
[  5] 167.00-168.00 sec   119 MBytes  1000 Mbits/sec  1908  
[  5] 168.00-169.00 sec   119 MBytes  1.00 Gbits/sec  1909  
[  5] 169.00-170.00 sec   119 MBytes  1000 Mbits/sec  1908  
[  5] 170.00-171.00 sec   119 MBytes  1.00 Gbits/sec  1910  
[  5] 171.00-172.00 sec   119 MBytes  1.00 Gbits/sec  1909  
[  5] 172.00-173.00 sec   119 MBytes  1000 Mbits/sec  1908  
[  5] 173.00-174.00 sec   119 MBytes  1000 Mbits/sec  1909  
[  5] 174.00-175.00 sec   119 MBytes  1.00 Gbits/sec  1909  
[  5] 175.00-176.00 sec   119 MBytes  1.00 Gbits/sec  1909  
[  5] 176.00-177.00 sec   119 MBytes  1.00 Gbits/sec  1909  
[  5] 177.00-178.00 sec   119 MBytes  1.00 Gbits/sec  1909  
[  5] 178.00-179.00 sec   119 MBytes  1.00 Gbits/sec  1909  
[  5] 179.00-180.00 sec   119 MBytes  1000 Mbits/sec  1908  
[  5] 180.00-181.00 sec   119 MBytes  1.00 Gbits/sec  1909  
[  5] 181.00-182.00 sec   119 MBytes  1.00 Gbits/sec  1909  
[  5] 182.00-183.00 sec   119 MBytes  1.00 Gbits/sec  1909  
[  5] 183.00-184.00 sec   119 MBytes  1.00 Gbits/sec  1909  
[  5] 184.00-185.00 sec   119 MBytes  1.00 Gbits/sec  1909  
[  5] 185.00-186.00 sec   119 MBytes  1.00 Gbits/sec  1909  
[  5] 186.00-187.00 sec   119 MBytes  1.00 Gbits/sec  1909  
[  5] 187.00-188.00 sec   119 MBytes  1000 Mbits/sec  1908  
[  5] 188.00-189.00 sec   119 MBytes  1.00 Gbits/sec  1909  
[  5] 189.00-190.00 sec   119 MBytes  1.00 Gbits/sec  1910  
[  5] 190.00-191.00 sec   119 MBytes  1000 Mbits/sec  1908  
[  5] 191.00-192.00 sec   119 MBytes  1.00 Gbits/sec  1909  
[  5] 192.00-193.00 sec   119 MBytes  1.00 Gbits/sec  1909  
[  5] 193.00-194.00 sec   119 MBytes  1.00 Gbits/sec  1909  
[  5] 194.00-195.00 sec   119 MBytes  1.00 Gbits/sec  1909  
[  5] 195.00-196.00 sec   119 MBytes  1.00 Gbits/sec  1909  
[  5] 196.00-197.00 sec   119 MBytes  1.00 Gbits/sec  1909  
[  5] 197.00-198.00 sec   119 MBytes  1000 Mbits/sec  1908  
[  5] 198.00-199.00 sec   119 MBytes  1.00 Gbits/sec  1910  
[  5] 199.00-200.00 sec   119 MBytes  1000 Mbits/sec  1908  
[  5] 200.00-201.00 sec   119 MBytes  1.00 Gbits/sec  1909  
[  5] 201.00-202.00 sec   119 MBytes  1.00 Gbits/sec  1909  
[  5] 202.00-203.00 sec   119 MBytes  1.00 Gbits/sec  1909  
[  5] 203.00-204.00 sec   119 MBytes  1.00 Gbits/sec  1909  
[  5] 204.00-205.00 sec   119 MBytes  1.00 Gbits/sec  1909  
[  5] 205.00-206.00 sec   119 MBytes  1.00 Gbits/sec  1909  
[  5] 206.00-207.00 sec   119 MBytes  1.00 Gbits/sec  1909  
[  5] 207.00-208.00 sec   119 MBytes  1000 Mbits/sec  1908  
[  5] 208.00-209.00 sec   119 MBytes  1.00 Gbits/sec  1909  
[  5] 209.00-210.00 sec   119 MBytes  1.00 Gbits/sec  1909  
[  5] 210.00-211.00 sec   119 MBytes  1.00 Gbits/sec  1909  
[  5] 211.00-212.00 sec   119 MBytes  1.00 Gbits/sec  1909  
[  5] 212.00-213.00 sec   119 MBytes  1.00 Gbits/sec  1909  
[  5] 213.00-214.00 sec   119 MBytes  1.00 Gbits/sec  1909  
[  5] 214.00-215.00 sec   119 MBytes  1.00 Gbits/sec  1909  
[  5] 215.00-216.00 sec   119 MBytes  1.00 Gbits/sec  1909  
[  5] 216.00-217.00 sec   119 MBytes  1000 Mbits/sec  1908  
[  5] 217.00-218.00 sec   119 MBytes  1.00 Gbits/sec  1910  
[  5] 218.00-219.00 sec   119 MBytes  1000 Mbits/sec  1908  
[  5] 219.00-220.00 sec   119 MBytes  1.00 Gbits/sec  1909  
[  5] 220.00-221.00 sec   119 MBytes  1.00 Gbits/sec  1910  
[  5] 221.00-222.00 sec   119 MBytes   999 Mbits/sec  1908  
[  5] 222.00-223.00 sec   119 MBytes  1.00 Gbits/sec  1910  
[  5] 223.00-224.00 sec   119 MBytes  1000 Mbits/sec  1908  
[  5] 224.00-225.00 sec   119 MBytes  1.00 Gbits/sec  1909  
[  5] 225.00-226.00 sec   119 MBytes  1000 Mbits/sec  1908  
[  5] 226.00-227.00 sec   119 MBytes  1.00 Gbits/sec  1910  
[  5] 227.00-228.00 sec   119 MBytes  1000 Mbits/sec  1908  
[  5] 228.00-229.00 sec   119 MBytes  1.00 Gbits/sec  1909  
[  5] 229.00-230.00 sec   119 MBytes  1.00 Gbits/sec  1909  
[  5] 230.00-231.00 sec   119 MBytes  1.00 Gbits/sec  1909  
[  5] 231.00-232.00 sec   119 MBytes  1.00 Gbits/sec  1909  
[  5] 232.00-233.00 sec   119 MBytes  1.00 Gbits/sec  1909  
[  5] 233.00-234.00 sec   119 MBytes  1.00 Gbits/sec  1909  
[  5] 234.00-235.00 sec   119 MBytes  1.00 Gbits/sec  1909  
[  5] 235.00-236.00 sec   119 MBytes  1.00 Gbits/sec  1909  
[  5] 235.00-236.00 sec   119 MBytes  1.00 Gbits/sec  1909  
- - - - - - - - - - - - - - - - - - - - - - - - -
[ ID] Interval           Transfer     Bitrate         Jitter    Lost/Total Datagrams
[  5]   0.00-236.00 sec  27.5 GBytes  1.00 Gbits/sec  0.000 ms  0/450987 (0%)  sender
[  5]   0.00-236.00 sec  0.00 Bytes  0.00 bits/sec  0.000 ms  0/0 (0%)  receiver
